dfsdf:sdfsdf
123:1231
qwqwe:13
beget:begetok
has_js:1
_ym_visorc_28024050:w
dfsdf:a
Drupal_tableDrag_showWeight:0
beget:begetok
has_js:1
jv_enter_ts_156712:1424419269205
jv_gui_state_156712:WIDGET
_ym_visorc_28024050:w
DRUPAL_UID:1
SESScfbcc517361cd92cdeae0b4139dcaa9e:RitIVeWtcBomGb67XEwFtjsOrzfgAnYw8QnOcZnnoew
dfsdf:a
Drupal_tableDrag_showWeight:0
beget:begetok
has_js:1
jv_enter_ts_156712:1424419269205
jv_gui_state_156712:WIDGET
_ym_visorc_28024050:w
DRUPAL_UID:1
SESScfbcc517361cd92cdeae0b4139dcaa9e:RitIVeWtcBomGb67XEwFtjsOrzfgAnYw8QnOcZnnoew
dfsdf:sdfsdf
123:1231
qwqwe:13
beget:begetok
has_js:1
_ym_visorc_28024050:w
dfsdf:sdfsdf
123:123
beget:begetok
Drupal_tableDrag_showWeight:0
_ym_visorc_22998040:w
jv_enter_ts_156712:1424769415535
jv_gui_state_156712:WIDGET
has_js:1
_ym_visorc_28024050:w
dfsdf:sdfsdf
123:1231
qwqwe:13
beget:begetok
has_js:1
_ym_visorc_28024050:w
level_id:3875
course_id:3874
beget:begetok
jv_enter_ts_156712:1426232259661
Drupal_tableDrag_showWeight:0
jv_gui_state_156712:WIDGET
SESScfbcc517361cd92cdeae0b4139dcaa9e:x-DirjDRTPhO7-smZO6fOkz2zJtiIRLb-77QUGY74ik
DRUPAL_UID:1
_ym_visorc_28024050:w
has_js:1
level_id:3875
course_id:3874
beget:begetok
jv_enter_ts_156712:1426232259661
Drupal_tableDrag_showWeight:0
SESScfbcc517361cd92cdeae0b4139dcaa9e:x-DirjDRTPhO7-smZO6fOkz2zJtiIRLb-77QUGY74ik
DRUPAL_UID:1
jv_gui_state_156712:WIDGET
_ym_visorc_28024050:w
has_js:1
level_id:3875
course_id:3874
beget:begetok
jv_enter_ts_156712:1426232259661
Drupal_tableDrag_showWeight:0
SESScfbcc517361cd92cdeae0b4139dcaa9e:x-DirjDRTPhO7-smZO6fOkz2zJtiIRLb-77QUGY74ik
DRUPAL_UID:1
jv_gui_state_156712:WIDGET
has_js:1
level_id:3875
course_id:3874
id:10207477
first_name:dasdsa
last_name:
middle_name:
email:asdas@sadas.ds
phone:
city:
country:RUS
region:
postalcode:
created:1426268828
items:Array
hash:a43d8ced0dab5d37b6c311237555537f
level_id:3875
course_id:3874
id:10207477
first_name:dasdsa
last_name:
middle_name:
email:asdas@sadas.ds
phone:
city:
country:RUS
address:
region:
postalcode:
created:1426268828
paid:1426268845
comment:
items:Array
hash:87dbe8a55531b8302da440206ce2d712
dfsdf:sdfsdf
123:123
id:10209020
first_name:dsad
last_name:
middle_name:
email:dsad@asda.ri
phone:
city:
country:RUS
region:
postalcode:
created:1426524099
items:Array
hash:b27a2592bac5dc8a1bcad23d8b4f4bc2
dfsdf:sdfsdf
123:123
id:10209020
first_name:dsad
last_name:
middle_name:
email:dsad@asda.ri
phone:
city:
country:RUS
address:
region:
postalcode:
created:1426524099
paid:1426524128
comment:
items:Array
hash:036943c166dd85e9e2901579e2d30c91
